id	place_id	categorySystem	CategoryId
1	1	find-places	shop
2	1	poi	9567
3	1	places-cat	600-6900-0096
4	2	find-places	shop
5	2	poi	9567
6	2	places-cat	600-6900-0000
7	3	find-places	food-drink
8	3	poi	5400
9	3	places-cat	600-6300-0066
10	4	find-places	Restaurant
11	4	places-cat	100-1000-0000
